-2.6737710624791195 -2.6737710624791195 -inf
-2.0990526377473044 -3.6324276713015519 -2.0992389281689301
-4.1601859895885359 -5.5183993787588755 -4.1606035747476484
-5.7404967863250134 -6.9322089362186335 -5.7413967597353626
-6.8887630206867837 -7.8256256670169579 -6.8916868334329699
-7.7854905251464688 -8.7256724084170591 -7.7883696900035852
-8.660666790079031 -9.6075024342072524 -8.6634585094227601
-9.5246896775390679 -10.484530122388957 -9.5273181245225413
