-3.0177214960012842 -3.0177214960012842 -inf
-2.282021339027359 -4.0679784782466381 -2.2820795357104176
-3.1003410172361873 -4.8683275931335423 -3.1004042357644004
-4.04544233814014 -5.8050101989405875 -4.0455080561359515
-5.5554658236789079 -6.8635915504330607 -5.5559918758387991
-6.2846441171697159 -7.2536710721699807 -6.2871630518475474
-6.7440409214019693 -7.6137262682560066 -6.748034582076626
-7.1185893129146556 -7.9708286575313199 -7.1229204261747795
-7.477917692097184 -8.3273363354407425 -7.4823060087238323
-7.8348966683210961 -8.683691549754602 -7.8392977374339171
-8.1913888369294439 -9.0399857424779561 -8.1957939613770665
-8.5477409403595991 -9.3962672339057917 -8.5521475121354277
-8.9040541178141976 -9.752555154964259 -8.9084612073848581
-9.2607829713555751 -10.109150238763395 -9.2651928044360314
