-2.6737710624791195 -2.6737710624791195 -inf
-1.5742597657023655 -3.653322141491136 -1.5742748541532125
-3.5456777650236567 -5.5375568228262282 -3.5457003083886796
-4.8176973929714409 -6.5776217405948999 -4.8177630031513928
-5.8982246895933847 -7.7551614170505122 -5.8982666580335821
-6.8899628300825982 -8.573617053386477 -6.8900560565208423
-7.7262429690988395 -9.4219414901647611 -7.7263311644037105
-8.5437651102120927 -10.213331538142563 -8.5438645868119623
-9.3389848857126834 -11.022099618153018 -9.3390783441049643
