-2.6020599913279629 -2.7525749891599535 -2.7525749891599535
-4.3112992258071801 -4.6052701409848781 -4.376173553918599
-6.2137730481461615 -6.5205204150054501 -6.2743695960066473
-7.781867745079688 -8.0642884423010471 -7.8509123222621496
-9.1530138278898289 -9.431566470181393 -9.2235242201342958
