-2.6020599913279629 -2.7525749891599535 -2.7525749891599535
-2.7613258744361939 -4.4978520284032724 -2.7613989504891269
-3.8992167251213673 -5.636206348855606 -3.8992896453440707
-5.0376456057865353 -6.7747033019150092 -5.0377185031495913
-6.1756430577181329 -7.912726762950293 -6.1757159463488664
-7.3134525690622962 -9.0505466269216077 -7.3135254542175194
-8.4511946373333271 -10.188288892977388 -8.451267522422153
-9.5866292022746884 -11.323723848606191 -9.5867020872323589
