-2.6020599913279629 -2.6020599913279629 -inf
-2.074515490223925 -4.1387444541472094 -2.0745316454315129
-3.0766496024279151 -5.1398022164303741 -3.0766658379150181
-3.759747237210004 -5.8232852027660241 -3.7597634439099329
-4.4521294815098799 -6.5156730584786675 -4.4521456877909929
-5.1457057367058298 -7.2092507544839526 -5.1457219428794078
-5.8395701413757597 -7.9031154857983978 -5.8395863475249585
-6.5335021153396418 -8.5970475386514127 -6.5335183214829528
-7.2274457715292737 -9.2909908967638563 -7.2274619776948316
-7.9213963745902943 -9.9849395431820969 -7.9214125809018868
-8.6151678085307218 -10.67870384365395 -8.6151840153747339
-9.3079880551110914 -11.371481487966822 -9.308004265135166
