-2.4515449934959723 -2.6020599913279629 -2.6020599913279629
-4.585208746607104 -6.5256742764778915 -4.5852373127643004
-7.0437392510417562 -8.9693973524567256 -7.0437698332396779
-8.8629095207863228 -10.768626965590649 -8.8629430445638096
-10.106024757701097 -11.855893900019173 -10.106093477954052
