-2.7525749891599535 -2.9030899869919441 -2.9030899869919441
-2.2303906480510081 -4.7882802372910883 -2.2303923113748032
-3.5953887227894015 -6.1237385109905569 -3.5953906284986645
-3.41246829400087 -5.9678333150310413 -3.412469976775502
-3.4982507871155065 -6.0537691046870901 -3.4982524687025871
-3.5845747130494121 -6.1400909841865705 -3.5845763946523404
-3.6708901280896731 -6.226406342572833 -3.6708918096930402
-3.7572050545671236 -6.3127212668026672 -3.7572067361705081
-3.843519959601799 -6.3990361717377501 -3.8435216412051843
-3.9298348636966063 -6.4853510758280162 -3.9298365452999916
-4.016149767748726 -6.5716659798799284 -4.0161514493521113
-4.1024646717988912 -6.6579808839300829 -4.1024663534022765
-4.1887795758489665 -6.7442957879801599 -4.1887812574523518
-4.275094479899039 -6.8306106920302334 -4.2750961615024243
-4.3614093839491117 -6.9169255960803034 -4.361411065552497
-4.4477242879991847 -7.0032405001303758 -4.44772596960257
-4.5340391920492555 -7.0895554041804483 -4.5340408736526407
-4.620354096099326 -7.1758703082305185 -4.6203557777027113
-4.7066690001493962 -7.2621852122805879 -4.7066706817527815
-4.7929839041994668 -7.3485001163306638 -4.7929855858028521
-4.8792988082495387 -7.434815020380738 -4.879300489852924
