-2.6020599913279629 -2.7525749891599535 -2.7525749891599535
-2.5095930437879085 -4.541466734403591 -2.5096117948419433
-3.2572340400097664 -5.2887990868958827 -3.2572528177358444
-4.0059299387008476 -6.0375270383233572 -4.005948713655262
-4.7546539225157859 -6.7862570105185337 -4.7546726969524186
-5.503375770061589 -7.5349800695715646 -5.5033945443934711
-6.2520970811673257 -8.2837016378462538 -6.2521158554769724
-7.0008182710826033 -9.0324228830610801 -7.0008370453874686
-7.7496156656116402 -9.7812129306421307 -7.7496344405517525
-8.4983933974488033 -10.529991404307522 -8.4984121723247731
-9.2456325078384842 -11.276833713529073 -9.2456513170553304
