-3.2041199826559253 -3.3546349804879159 -3.3546349804879159
-2.6548584804497344 -3.9786222585988621 -2.6553479392329091
-3.5316875590859101 -4.8588255593412283 -3.5321694626403078
-5.5417887088661926 -6.8307367884030951 -5.5423633976466934
-6.3257871677304092 -7.6585297872316939 -6.3262567791004946
-7.1112139196586448 -8.4411744985933677 -7.1116895929251997
-7.8389664549604884 -9.1715920076331263 -7.8394363198464506
-8.5821238370750349 -9.9143157895606271 -8.5825946421446544
-9.3200082574372079 -10.6523988077826 -9.3204786316497259
